%YAML 1.1
%TAG !u! tag:unity3d.com,2011:
--- !u!1001 &6106632692001347486
PrefabInstance:
  m_ObjectHideFlags: 0
  serializedVersion: 2
  m_Modification:
    m_TransformParent: {fileID: 0}
    m_Modifications:
    - target: {fileID: -4216859302048453862, guid: 69d2897353fa9e64188916c192aeccd3,
        type: 3}
      propertyPath: m_LocalPosition.x
      value: -22.649155
      objectReference: {fileID: 0}
    - target: {fileID: -4216859302048453862, guid: 69d2897353fa9e64188916c192aeccd3,
        type: 3}
      propertyPath: m_LocalPosition.y
      value: -10.681901
      objectReference: {fileID: 0}
    - target: {fileID: -4216859302048453862, guid: 69d2897353fa9e64188916c192aeccd3,
        type: 3}
      propertyPath: m_LocalPosition.z
      value: 3.2185469
      objectReference: {fileID: 0}
    - target: {fileID: -4216859302048453862, guid: 69d2897353fa9e64188916c192aeccd3,
        type: 3}
      propertyPath: m_LocalRotation.x
      value: -0.7071068
      objectReference: {fileID: 0}
    - target: {fileID: -4216859302048453862, guid: 69d2897353fa9e64188916c192aeccd3,
        type: 3}
      propertyPath: m_LocalRotation.y
      value: -0
      objectReference: {fileID: 0}
    - target: {fileID: -4216859302048453862, guid: 69d2897353fa9e64188916c192aeccd3,
        type: 3}
      propertyPath: m_LocalRotation.z
      value: -0
      objectReference: {fileID: 0}
    - target: {fileID: -4216859302048453862, guid: 69d2897353fa9e64188916c192aeccd3,
        type: 3}
      propertyPath: m_LocalRotation.w
      value: 0.7071067
      objectReference: {fileID: 0}
    - target: {fileID: -4216859302048453862, guid: 69d2897353fa9e64188916c192aeccd3,
        type: 3}
      propertyPath: m_RootOrder
      value: 0
      objectReference: {fileID: 0}
    - target: {fileID: -4216859302048453862, guid: 69d2897353fa9e64188916c192aeccd3,
        type: 3}
      propertyPath: m_LocalEulerAnglesHint.x
      value: 0
      objectReference: {fileID: 0}
    - target: {fileID: -4216859302048453862, guid: 69d2897353fa9e64188916c192aeccd3,
        type: 3}
      propertyPath: m_LocalEulerAnglesHint.y
      value: 0
      objectReference: {fileID: 0}
    - target: {fileID: -4216859302048453862, guid: 69d2897353fa9e64188916c192aeccd3,
        type: 3}
      propertyPath: m_LocalEulerAnglesHint.z
      value: 0
      objectReference: {fileID: 0}
    - target: {fileID: -4216859302048453862, guid: 69d2897353fa9e64188916c192aeccd3,
        type: 3}
      propertyPath: m_LocalScale.x
      value: 1.5438473
      objectReference: {fileID: 0}
    - target: {fileID: -4216859302048453862, guid: 69d2897353fa9e64188916c192aeccd3,
        type: 3}
      propertyPath: m_LocalScale.y
      value: 5.154282
      objectReference: {fileID: 0}
    - target: {fileID: -4216859302048453862, guid: 69d2897353fa9e64188916c192aeccd3,
        type: 3}
      propertyPath: m_LocalScale.z
      value: 79.85643
      objectReference: {fileID: 0}
    - target: {fileID: -1504981713932161579, guid: 69d2897353fa9e64188916c192aeccd3,
        type: 3}
      propertyPath: m_Materials.Array.data[3]
      value: 
      objectReference: {fileID: 2100000, guid: c99b095cdedb0c0499a32b34480f5f71, type: 2}
    - target: {fileID: -1504981713932161579, guid: 69d2897353fa9e64188916c192aeccd3,
        type: 3}
      propertyPath: m_Materials.Array.data[2]
      value: 
      objectReference: {fileID: 2100000, guid: 34ca19ad3929b0746bcde7d106201c1b, type: 2}
    - target: {fileID: -927199367670048503, guid: 69d2897353fa9e64188916c192aeccd3,
        type: 3}
      propertyPath: m_Name
      value: Szafka_kuchenna
      objectReference: {fileID: 0}
    m_RemovedComponents: []
  m_SourcePrefab: {fileID: 100100000, guid: 69d2897353fa9e64188916c192aeccd3, type: 3}
